<?xml version="1.0" encoding="UTF-8" standalone="no"?>
<!-- Created with Inkscape (http://www.inkscape.org/) -->
<svg
   xmlns:dc="http://purl.org/dc/elements/1.1/"
   xmlns:cc="http://web.resource.org/cc/"
   xmlns:rdf="http://www.w3.org/1999/02/22-rdf-syntax-ns#"
   xmlns:svg="http://www.w3.org/2000/svg"
   xmlns="http://www.w3.org/2000/svg"
   xmlns:xlink="http://www.w3.org/1999/xlink"
   xmlns:sodipodi="http://inkscape.sourceforge.net/DTD/sodipodi-0.dtd"
   xmlns:inkscape="http://www.inkscape.org/namespaces/inkscape"
   width="64px"
   height="64px"
   id="svg1316"
   sodipodi:version="0.32"
   inkscape:version="0.43"
   inkscape:export-filename="C:\Documents and Settings\Marek\My Documents\Visual Studio 2008\Projects\ProGammaX\Resources\mak7b.png"
   inkscape:export-xdpi="90"
   inkscape:export-ydpi="90"
   sodipodi:docbase="C:\Documents and Settings\Marek\My Documents\Visual Studio 2008\Projects\ProGammaX\Resources\Inkscape"
   sodipodi:docname="mak7b.svg">
  <defs
     id="defs1318">
    <linearGradient
       inkscape:collect="always"
       id="linearGradient1327">
      <stop
         style="stop-color:#000000;stop-opacity:1;"
         offset="0"
         id="stop1329" />
      <stop
         style="stop-color:#000000;stop-opacity:0;"
         offset="1"
         id="stop1331" />
    </linearGradient>
    <linearGradient
       inkscape:collect="always"
       xlink:href="#linearGradient1327"
       id="linearGradient1333"
       x1="54.909088"
       y1="108"
       x2="32.727272"
       y2="33.454544"
       gradientUnits="userSpaceOnUse" />
  </defs>
  <sodipodi:namedview
     id="base"
     pagecolor="#ffffff"
     bordercolor="#666666"
     borderopacity="1.0"
     inkscape:pageopacity="0.0"
     inkscape:pageshadow="2"
     inkscape:zoom="5.5"
     inkscape:cx="32"
     inkscape:cy="-23.278776"
     inkscape:current-layer="layer1"
     showgrid="true"
     inkscape:document-units="px"
     inkscape:grid-bbox="true"
     inkscape:window-width="1280"
     inkscape:window-height="744"
     inkscape:window-x="-4"
     inkscape:window-y="-4" />
  <metadata
     id="metadata1321">
    <rdf:RDF>
      <cc:Work
         rdf:about="">
        <dc:format>image/svg+xml</dc:format>
        <dc:type
           rdf:resource="http://purl.org/dc/dcmitype/StillImage" />
      </cc:Work>
    </rdf:RDF>
  </metadata>
  <g
     id="layer1"
     inkscape:label="Layer 1"
     inkscape:groupmode="layer">
    <image
       xlink:href="C:\Documents and Settings\Marek\My Documents\Visual Studio 2008\Projects\ProGammaX\Resources\mak7.bmp"
       sodipodi:absref="C:\Documents and Settings\Marek\My Documents\Visual Studio 2008\Projects\ProGammaX\Resources\mak7.bmp"
       width="64"
       height="64"
       id="image1314"
       x="0"
       y="0" />
    <rect
       style="opacity:1;fill:url(#linearGradient1333);fill-opacity:1.0;fill-rule:evenodd;stroke:none;stroke-width:1.89999998;stroke-linejoin:round;stroke-miterlimit:4;stroke-dasharray:none;stroke-opacity:1"
       id="rect1325"
       width="110.45454"
       height="94"
       x="-3"
       y="-2"
       rx="11.285258"
       ry="39.856686" />
  </g>
</svg>
