<?xml version="1.0" encoding="UTF-8" standalone="no"?>
<!-- Created with Inkscape (http://www.inkscape.org/) -->
<svg
   xmlns:dc="http://purl.org/dc/elements/1.1/"
   xmlns:cc="http://web.resource.org/cc/"
   xmlns:rdf="http://www.w3.org/1999/02/22-rdf-syntax-ns#"
   xmlns:svg="http://www.w3.org/2000/svg"
   xmlns="http://www.w3.org/2000/svg"
   xmlns:xlink="http://www.w3.org/1999/xlink"
   xmlns:sodipodi="http://inkscape.sourceforge.net/DTD/sodipodi-0.dtd"
   xmlns:inkscape="http://www.inkscape.org/namespaces/inkscape"
   width="64px"
   height="64px"
   id="svg1307"
   sodipodi:version="0.32"
   inkscape:version="0.43"
   sodipodi:docbase="Z:\Visual Studio 2008\Projects\GameLoader 2008\Resources\Inkscape\Profiles_TabPageIcons"
   sodipodi:docname="Mouse1.svg"
   inkscape:export-filename="Z:\Visual Studio 2008\Projects\GameLoader 2008\Resources\Inkscape\Profiles_TabPageIcons\Mouse1+.png"
   inkscape:export-xdpi="90"
   inkscape:export-ydpi="90">
  <defs
     id="defs1309">
    <linearGradient
       id="linearGradient4454">
      <stop
         style="stop-color:#878787;stop-opacity:1;"
         offset="0"
         id="stop4456" />
      <stop
         style="stop-color:#343434;stop-opacity:0;"
         offset="1"
         id="stop4458" />
    </linearGradient>
    <linearGradient
       inkscape:collect="always"
       id="linearGradient4444">
      <stop
         style="stop-color:#000000;stop-opacity:1;"
         offset="0"
         id="stop4446" />
      <stop
         style="stop-color:#000000;stop-opacity:0;"
         offset="1"
         id="stop4448" />
    </linearGradient>
    <linearGradient
       id="linearGradient4428">
      <stop
         id="stop4430"
         offset="0"
         style="stop-color:#000000;stop-opacity:1;" />
      <stop
         id="stop4432"
         offset="1"
         style="stop-color:#000000;stop-opacity:0.31858408;" />
    </linearGradient>
    <linearGradient
       id="linearGradient4410">
      <stop
         style="stop-color:#000000;stop-opacity:1;"
         offset="0"
         id="stop4412" />
      <stop
         style="stop-color:#000000;stop-opacity:0.31858408;"
         offset="1"
         id="stop4414" />
    </linearGradient>
    <linearGradient
       inkscape:collect="always"
       id="linearGradient4392">
      <stop
         style="stop-color:#ffffff;stop-opacity:1;"
         offset="0"
         id="stop4394" />
      <stop
         style="stop-color:#ffffff;stop-opacity:0;"
         offset="1"
         id="stop4396" />
    </linearGradient>
    <linearGradient
       id="linearGradient4386">
      <stop
         id="stop4388"
         offset="0"
         style="stop-color:#e7e1e1;stop-opacity:1;" />
      <stop
         style="stop-color:#c2c2c2;stop-opacity:1;"
         offset="0.5"
         id="stop4408" />
      <stop
         id="stop4390"
         offset="1"
         style="stop-color:#f9f9f9;stop-opacity:1;" />
    </linearGradient>
    <linearGradient
       id="linearGradient3946">
      <stop
         style="stop-color:#ffffff;stop-opacity:1;"
         offset="0"
         id="stop3948" />
      <stop
         style="stop-color:#f08080;stop-opacity:0;"
         offset="1"
         id="stop3950" />
    </linearGradient>
    <linearGradient
       inkscape:collect="always"
       xlink:href="#linearGradient4386"
       id="linearGradient4384"
       x1="25.020311"
       y1="35.199001"
       x2="24.86858"
       y2="53.153049"
       gradientUnits="userSpaceOnUse" />
    <radialGradient
       inkscape:collect="always"
       xlink:href="#linearGradient4392"
       id="radialGradient4398"
       cx="32.283131"
       cy="27.491554"
       fx="32.283131"
       fy="27.491554"
       r="2.5419456"
       gradientTransform="matrix(1,0,0,1.670261,0,-18.42651)"
       gradientUnits="userSpaceOnUse" />
    <radialGradient
       inkscape:collect="always"
       xlink:href="#linearGradient4428"
       id="radialGradient4418"
       cx="31.715908"
       cy="37.365868"
       fx="31.715908"
       fy="37.365868"
       r="16.756058"
       gradientTransform="matrix(1,0,0,1.316791,0,-11.83716)"
       gradientUnits="userSpaceOnUse" />
    <radialGradient
       inkscape:collect="always"
       xlink:href="#linearGradient4444"
       id="radialGradient4434"
       cx="31.980478"
       cy="55.915031"
       fx="31.980478"
       fy="55.915031"
       r="7.4366903"
       gradientTransform="matrix(1,0,0,0.263012,0,41.20872)"
       gradientUnits="userSpaceOnUse" />
    <radialGradient
       inkscape:collect="always"
       xlink:href="#linearGradient4428"
       id="radialGradient4442"
       cx="31.527164"
       cy="36.219109"
       fx="31.527164"
       fy="36.219109"
       r="14.633726"
       gradientTransform="matrix(1,0,0,0.183689,0,29.56604)"
       gradientUnits="userSpaceOnUse" />
    <radialGradient
       inkscape:collect="always"
       xlink:href="#linearGradient4444"
       id="radialGradient4450"
       cx="32.206365"
       cy="26.919097"
       fx="32.206365"
       fy="26.919097"
       r="1.2108033"
       gradientTransform="matrix(1,0,0,9.117913,0,-218.5269)"
       gradientUnits="userSpaceOnUse" />
    <radialGradient
       inkscape:collect="always"
       xlink:href="#linearGradient4454"
       id="radialGradient4460"
       cx="29.980049"
       cy="36.657799"
       fx="29.980049"
       fy="36.657799"
       r="8.5"
       gradientTransform="matrix(3.066931,-4.885954e-3,4.819636e-3,3.024351,-62.14336,-72.93958)"
       gradientUnits="userSpaceOnUse" />
  </defs>
  <sodipodi:namedview
     id="base"
     pagecolor="#ffffff"
     bordercolor="#666666"
     borderopacity="1.0"
     inkscape:pageopacity="0.0"
     inkscape:pageshadow="2"
     inkscape:zoom="12.921875"
     inkscape:cx="32"
     inkscape:cy="41.91694"
     inkscape:current-layer="layer1"
     showgrid="true"
     inkscape:document-units="px"
     inkscape:grid-bbox="true"
     inkscape:window-width="1400"
     inkscape:window-height="994"
     inkscape:window-x="-4"
     inkscape:window-y="-4" />
  <metadata
     id="metadata1312">
    <rdf:RDF>
      <cc:Work
         rdf:about="">
        <dc:format>image/svg+xml</dc:format>
        <dc:type
           rdf:resource="http://purl.org/dc/dcmitype/StillImage" />
      </cc:Work>
    </rdf:RDF>
  </metadata>
  <g
     id="layer1"
     inkscape:label="Layer 1"
     inkscape:groupmode="layer">
    <rect
       style="opacity:1;fill:url(#radialGradient4460);fill-opacity:1;fill-rule:evenodd;stroke:none;stroke-width:2.33999991;stroke-linecap:square;stroke-linejoin:round;stroke-miterlimit:4;stroke-dasharray:none;stroke-dashoffset:0;stroke-opacity:1"
       id="rect4452"
       width="55"
       height="46"
       x="6"
       y="13" />
    <path
       style="fill:url(#linearGradient4384);fill-opacity:1.0;fill-rule:evenodd;stroke:url(#radialGradient4418);stroke-width:3;stroke-linecap:round;stroke-linejoin:round;stroke-miterlimit:4;stroke-dasharray:none;stroke-opacity:1"
       d="M 17.8796,22.226427 C 19.951492,14.868702 44.091922,15.119153 46.061177,22.226427 C 42.96751,38.196371 49.199731,43.414517 46.061177,54.721657 C 37.539862,58.698863 28.528164,59.29007 17.8796,54.721657 C 13.665474,42.541819 20.426017,38.392202 17.8796,22.226427 z "
       id="path1315"
       sodipodi:nodetypes="ccccc" />
    <path
       style="fill:none;fill-opacity:0.75;fill-rule:evenodd;stroke:url(#radialGradient4442);stroke-width:2.34;stroke-linecap:square;stroke-linejoin:round;stroke-miterlimit:4;stroke-dasharray:none;stroke-opacity:1"
       d="M 18.063391,34.700999 L 29.269914,36.216787 C 30.195845,37.890517 33.787768,38.534406 35.292776,36.30474 L 44.990939,34.767821"
       id="path1317"
       sodipodi:nodetypes="cccc" />
    <path
       style="fill:none;fill-opacity:0.75;fill-rule:evenodd;stroke:url(#radialGradient4450);stroke-width:2.42160654;stroke-linecap:butt;stroke-linejoin:miter;stroke-miterlimit:4;stroke-dasharray:none;stroke-opacity:1"
       d="M 32.206365,36.748292 L 32.206365,17.089901"
       id="path1319"
       sodipodi:nodetypes="cc" />
    <rect
       style="opacity:1;fill:url(#radialGradient4398);fill-opacity:1.0;fill-rule:evenodd;stroke:#000000;stroke-width:1.94699228;stroke-linecap:round;stroke-linejoin:round;stroke-miterlimit:4;stroke-dasharray:none;stroke-dashoffset:0;stroke-opacity:1"
       id="rect1321"
       width="3.136899"
       height="6.5444326"
       x="30.714682"
       y="24.219337" />
    <path
       style="fill:none;fill-opacity:0.75;fill-rule:evenodd;stroke:url(#radialGradient4434);stroke-width:2.33990479;stroke-linecap:round;stroke-linejoin:round;stroke-miterlimit:4;stroke-dasharray:none;stroke-opacity:1"
       d="M 25.71374,56.701017 C 34.690861,54.743148 28.39808,54.495271 38.247216,56.634195"
       id="path1323"
       sodipodi:nodetypes="cc" />
    <path
       style="fill:#000000;fill-opacity:1;fill-rule:nonzero;stroke:none;stroke-width:1px;stroke-linecap:butt;stroke-linejoin:miter;stroke-opacity:1"
       id="path3071"
       d="M 31.839181,17.230982 C 31.724304,14.608314 31.106287,12.088451 32.566033,9.830384 C 34.818592,6.5796448 37.049056,8.3388149 39.67898,9.3621632 C 40.498054,9.6025693 41.277423,9.0883618 42,8.6680811 L 41.205607,9.4423385 C 40.462685,9.8567411 39.674206,10.366334 38.844157,10.055569 C 36.271379,8.9157135 34.73879,7.5110582 33.44818,9.3695814 C 31.952785,11.559458 32.486254,14.058307 32.802053,16.629701 L 31.839181,17.230982 z " />
  </g>
</svg>
