<?xml version="1.0" encoding="UTF-8" standalone="no"?>
<!-- Created with Inkscape (http://www.inkscape.org/) -->
<svg
   xmlns:dc="http://purl.org/dc/elements/1.1/"
   xmlns:cc="http://web.resource.org/cc/"
   xmlns:rdf="http://www.w3.org/1999/02/22-rdf-syntax-ns#"
   xmlns:svg="http://www.w3.org/2000/svg"
   xmlns="http://www.w3.org/2000/svg"
   xmlns:sodipodi="http://inkscape.sourceforge.net/DTD/sodipodi-0.dtd"
   xmlns:inkscape="http://www.inkscape.org/namespaces/inkscape"
   width="64px"
   height="64px"
   id="svg3318"
   sodipodi:version="0.32"
   inkscape:version="0.43"
   sodipodi:docbase="Z:\Visual Studio 2008\Projects\GameLoader 2008\Resources\Inkscape\Profiles_TabPageIcons"
   sodipodi:docname="Network.svg"
   inkscape:export-filename="Z:\Visual Studio 2008\Projects\GameLoader 2008\Resources\Inkscape\Profiles_TabPageIcons\Network3.png"
   inkscape:export-xdpi="90"
   inkscape:export-ydpi="90">
  <defs
     id="defs3320" />
  <sodipodi:namedview
     id="base"
     pagecolor="#ffffff"
     bordercolor="#666666"
     borderopacity="1.0"
     inkscape:pageopacity="0.0"
     inkscape:pageshadow="2"
     inkscape:zoom="12.921875"
     inkscape:cx="32"
     inkscape:cy="32"
     inkscape:current-layer="layer1"
     showgrid="true"
     inkscape:document-units="px"
     inkscape:grid-bbox="true"
     inkscape:window-width="1400"
     inkscape:window-height="994"
     inkscape:window-x="-4"
     inkscape:window-y="-4" />
  <metadata
     id="metadata3323">
    <rdf:RDF>
      <cc:Work
         rdf:about="">
        <dc:format>image/svg+xml</dc:format>
        <dc:type
           rdf:resource="http://purl.org/dc/dcmitype/StillImage" />
      </cc:Work>
    </rdf:RDF>
  </metadata>
  <g
     id="layer1"
     inkscape:label="Layer 1"
     inkscape:groupmode="layer">
    <path
       style="fill:none;fill-opacity:0.75;fill-rule:evenodd;stroke:#000000;stroke-width:4;stroke-linecap:round;stroke-linejoin:round;stroke-opacity:1;stroke-miterlimit:4;stroke-dasharray:none"
       d="M 6,4 C 4.7449359,5.2281935 7.5033331,59.695008 8.5126965,59.511487 C 24.757255,59.757994 40.863455,59.958381 56.493349,60 C 59.73285,41.23252 60.70168,21.797196 60.440145,2 C 42.390318,4.1199848 24.256039,4.9732006 6,4 z "
       id="path3326"
       sodipodi:nodetypes="ccccc" />
    <path
       style="fill:none;fill-opacity:0.75;fill-rule:evenodd;stroke:#000000;stroke-width:1px;stroke-linecap:butt;stroke-linejoin:miter;stroke-opacity:1"
       d="M 41,8 L 41,2.4764208"
       id="path3330" />
    <path
       style="fill:none;fill-opacity:0.75;fill-rule:evenodd;stroke:#000000;stroke-width:1px;stroke-linecap:butt;stroke-linejoin:miter;stroke-opacity:1"
       d="M 6.5006046,16 L 26.466747,12 L 41,8 L 49,12 L 60,11"
       id="path3332" />
    <path
       style="fill:none;fill-opacity:0.75;fill-rule:evenodd;stroke:#000000;stroke-width:1px;stroke-linecap:butt;stroke-linejoin:miter;stroke-opacity:1"
       d="M 49,12 L 8.5126965,59.588875"
       id="path3334" />
    <path
       style="fill:none;fill-opacity:0.75;fill-rule:evenodd;stroke:#000000;stroke-width:1px;stroke-linecap:butt;stroke-linejoin:miter;stroke-opacity:1"
       d="M 7,24 L 58,42.408706"
       id="path3336" />
    <path
       style="fill:none;fill-opacity:0.75;fill-rule:evenodd;stroke:#000000;stroke-width:1px;stroke-linecap:butt;stroke-linejoin:miter;stroke-opacity:1"
       d="M 26,12 C 27,12.459492 37.455865,60 37.455865,60"
       id="path3338" />
    <path
       style="fill:none;fill-opacity:0.75;fill-rule:evenodd;stroke:#000000;stroke-width:1px;stroke-linecap:butt;stroke-linejoin:miter;stroke-opacity:1"
       d="M 7.4292624,38 L 59,27"
       id="path3340" />
    <path
       style="fill:none;fill-opacity:0.75;fill-rule:evenodd;stroke:#000000;stroke-width:1px;stroke-linecap:butt;stroke-linejoin:miter;stroke-opacity:1"
       d="M 8,46 L 60,16.483676"
       id="path3342" />
    <path
       style="fill:none;fill-opacity:0.75;fill-rule:evenodd;stroke:#000000;stroke-width:2;stroke-linecap:round;stroke-linejoin:round;stroke-opacity:1;stroke-miterlimit:4;stroke-dasharray:none"
       d="M 32,34 L 37,35 L 39,31.496977 L 40,28 L 37,25 L 29,24 L 21.513906,29 L 22,35 L 23,37.533253 L 25,41 L 33.509069,42 L 42.563482,37 L 45,30 L 44,25 L 40,21.513906 L 28,20 L 16,27 L 16.406288,36 L 18.495768,40 L 21.436518,44.575574 L 35,47 L 48,39 L 50,29 L 50,22 L 44,17 L 27,15.400242 L 11,25 L 11,37 L 13.542926,43 L 17.412334,49 L 36,53 L 52.546554,40.474002 L 55,27.550181 L 55,19 L 47,14 L 26,12.459492 L 8,24 L 8,38 L 10,45 L 14,53 L 37,57 L 56,42 L 58,27 L 58,17.56711 L 48,12"
       id="path3346" />
  </g>
</svg>
