<?xml version="1.0" encoding="UTF-8" standalone="no"?>
<!-- Created with Inkscape (http://www.inkscape.org/) -->

<svg
   xmlns:dc="http://purl.org/dc/elements/1.1/"
   xmlns:cc="http://creativecommons.org/ns#"
   xmlns:rdf="http://www.w3.org/1999/02/22-rdf-syntax-ns#"
   xmlns:svg="http://www.w3.org/2000/svg"
   xmlns="http://www.w3.org/2000/svg"
   xmlns:xlink="http://www.w3.org/1999/xlink"
   xmlns:sodipodi="http://sodipodi.sourceforge.net/DTD/sodipodi-0.dtd"
   xmlns:inkscape="http://www.inkscape.org/namespaces/inkscape"
   width="64px"
   height="64px"
   id="svg26812"
   sodipodi:version="0.32"
   inkscape:version="0.48.4 r9939"
   sodipodi:docname="Sounds2.svg"
   inkscape:export-filename="C:\Marek\Dokumenty\Visual Studio 2013\Projects\Visual C#\ProGammaX2\Resources\Inkscape\Profiles_TabPageIcons\Sounds2.png"
   inkscape:export-xdpi="90"
   inkscape:export-ydpi="90"
   version="1.1">
  <defs
     id="defs26814">
    <linearGradient
       id="linearGradient3755">
      <stop
         style="stop-color:#e5f54b;stop-opacity:1;"
         offset="0"
         id="stop3757" />
      <stop
         style="stop-color:#f6de6b;stop-opacity:0.70440251;"
         offset="1"
         id="stop3759" />
    </linearGradient>
    <linearGradient
       inkscape:collect="always"
       xlink:href="#linearGradient3755"
       id="linearGradient3761"
       x1="27.07379"
       y1="32.452549"
       x2="44.994508"
       y2="32.452549"
       gradientUnits="userSpaceOnUse" />
    <linearGradient
       inkscape:collect="always"
       xlink:href="#linearGradient3755"
       id="linearGradient3763"
       x1="-56.597969"
       y1="32.225286"
       x2="-42.597969"
       y2="32.225286"
       gradientUnits="userSpaceOnUse" />
    <filter
       inkscape:collect="always"
       id="filter3945">
      <feGaussianBlur
         inkscape:collect="always"
         stdDeviation="0.18515086"
         id="feGaussianBlur3947" />
    </filter>
    <filter
       inkscape:collect="always"
       id="filter3949"
       x="-0.24371637"
       width="1.4874327"
       y="-0.029087677"
       height="1.0581754">
      <feGaussianBlur
         inkscape:collect="always"
         stdDeviation="0.18515086"
         id="feGaussianBlur3951" />
    </filter>
    <filter
       inkscape:collect="always"
       id="filter3953">
      <feGaussianBlur
         inkscape:collect="always"
         stdDeviation="0.18515086"
         id="feGaussianBlur3955" />
    </filter>
    <filter
       inkscape:collect="always"
       id="filter3957"
       x="-0.14250925"
       width="1.2850185"
       y="-0.020198275"
       height="1.0403966">
      <feGaussianBlur
         inkscape:collect="always"
         stdDeviation="0.18515086"
         id="feGaussianBlur3959" />
    </filter>
    <filter
       inkscape:collect="always"
       id="filter3961">
      <feGaussianBlur
         inkscape:collect="always"
         stdDeviation="0.18515086"
         id="feGaussianBlur3963" />
    </filter>
  </defs>
  <sodipodi:namedview
     id="base"
     pagecolor="#ffffff"
     bordercolor="#666666"
     borderopacity="1.0"
     inkscape:pageopacity="0.0"
     inkscape:pageshadow="2"
     inkscape:zoom="3.2304688"
     inkscape:cx="-34.314516"
     inkscape:cy="33.756525"
     inkscape:current-layer="layer1"
     showgrid="true"
     inkscape:document-units="px"
     inkscape:grid-bbox="true"
     inkscape:window-width="1400"
     inkscape:window-height="994"
     inkscape:window-x="-4"
     inkscape:window-y="-4"
     inkscape:window-maximized="0" />
  <metadata
     id="metadata26817">
    <rdf:RDF>
      <cc:Work
         rdf:about="">
        <dc:format>image/svg+xml</dc:format>
        <dc:type
           rdf:resource="http://purl.org/dc/dcmitype/StillImage" />
        <dc:title></dc:title>
      </cc:Work>
    </rdf:RDF>
  </metadata>
  <g
     id="layer1"
     inkscape:label="Layer 1"
     inkscape:groupmode="layer">
    <path
       style="fill:url(#linearGradient3761);fill-opacity:1;fill-rule:evenodd;stroke:#131313;stroke-width:3;stroke-linecap:round;stroke-linejoin:round;stroke-miterlimit:4;stroke-dasharray:none;stroke-opacity:0.99630994;filter:url(#filter3961);opacity:0.90000004000000000"
       d="M 43.379976,18.627398 C 43.547993,30.16775 43.516571,38.890499 43.379976,46.127398 C 37.42308,48.420601 32.768545,54.748748 28.635505,62.692573 C 30.677398,39.978143 30.182342,20.402889 28.57379,2.2125251 C 32.52431,9.9726344 37.00543,16.499828 43.379976,18.627398 z "
       id="path26820"
       sodipodi:nodetypes="ccccc" />
    <path
       style="fill:none;fill-opacity:0.75000000000000000;fill-rule:evenodd;stroke:#131313;stroke-width:3;stroke-linecap:round;stroke-linejoin:round;stroke-miterlimit:4;stroke-dasharray:none;stroke-opacity:0.99630994;filter:url(#filter3957);opacity:0.90000004000000000"
       d="M 19.552269,20.404745 C 15.85802,26.426376 14.955907,33.4394 19.552269,42.404745"
       id="path26822"
       sodipodi:nodetypes="cc" />
    <rect
       style="opacity:0.90000004000000000;fill:url(#linearGradient3763);fill-opacity:1;fill-rule:evenodd;stroke:#131313;stroke-width:3;stroke-linecap:round;stroke-linejoin:round;stroke-miterlimit:4;stroke-dasharray:none;stroke-dashoffset:0;stroke-opacity:0.99630994;filter:url(#filter3953)"
       id="rect26824"
       width="11"
       height="27.378033"
       x="-55.097969"
       y="18.53627"
       transform="scale(-1,1)" />
    <path
       sodipodi:nodetypes="cc"
       id="path26832"
       d="M 24.704081,23.981437 C 22.543929,28.162814 22.016431,33.032606 24.704081,39.25808"
       style="fill:none;fill-opacity:0.75000000000000000;fill-rule:evenodd;stroke:#131313;stroke-width:3;stroke-linecap:round;stroke-linejoin:round;stroke-miterlimit:4;stroke-dasharray:none;stroke-opacity:0.99630994;filter:url(#filter3949);opacity:0.90000004000000000" />
    <path
       sodipodi:nodetypes="cc"
       id="path26834"
       d="M 15.337305,12.269672 C 8.7502752,23.544268 7.141763,36.675099 15.337305,53.461358"
       style="fill:none;fill-opacity:0.75000000000000000;fill-rule:evenodd;stroke:#131313;stroke-width:3;stroke-linecap:round;stroke-linejoin:round;stroke-miterlimit:4;stroke-dasharray:none;stroke-opacity:0.99630994;filter:url(#filter3945);opacity:0.90000004000000000" />
  </g>
</svg>
