<?xml version="1.0" encoding="UTF-8" standalone="no"?>
<!-- Created with Inkscape (http://www.inkscape.org/) -->
<svg
   xmlns:dc="http://purl.org/dc/elements/1.1/"
   xmlns:cc="http://web.resource.org/cc/"
   xmlns:rdf="http://www.w3.org/1999/02/22-rdf-syntax-ns#"
   xmlns:svg="http://www.w3.org/2000/svg"
   xmlns="http://www.w3.org/2000/svg"
   xmlns:xlink="http://www.w3.org/1999/xlink"
   xmlns:sodipodi="http://inkscape.sourceforge.net/DTD/sodipodi-0.dtd"
   xmlns:inkscape="http://www.inkscape.org/namespaces/inkscape"
   width="64px"
   height="64px"
   id="svg1307"
   sodipodi:version="0.32"
   inkscape:version="0.43"
   sodipodi:docbase="Z:\Visual Studio 2008\Projects\GameLoader 2008\Resources\Inkscape\Icons"
   sodipodi:docname="Ball1.svg"
   inkscape:export-filename="Z:\Visual Studio 2008\Projects\GameLoader 2008\Resources\Inkscape\Icons\Ball.png"
   inkscape:export-xdpi="90"
   inkscape:export-ydpi="90">
  <defs
     id="defs1309">
    <linearGradient
       inkscape:collect="always"
       id="linearGradient1337">
      <stop
         style="stop-color:#000000;stop-opacity:1;"
         offset="0"
         id="stop1339" />
      <stop
         style="stop-color:#000000;stop-opacity:0;"
         offset="1"
         id="stop1341" />
    </linearGradient>
    <linearGradient
       id="linearGradient1323">
      <stop
         style="stop-color:#b4c0f5;stop-opacity:1;"
         offset="0"
         id="stop1325" />
      <stop
         style="stop-color:#f5b7b4;stop-opacity:0;"
         offset="1"
         id="stop1327" />
    </linearGradient>
    <linearGradient
       inkscape:collect="always"
       xlink:href="#linearGradient1323"
       id="linearGradient1329"
       x1="19.107553"
       y1="25.14558"
       x2="60.164234"
       y2="67.645889"
       gradientUnits="userSpaceOnUse" />
    <linearGradient
       inkscape:collect="always"
       xlink:href="#linearGradient1337"
       id="linearGradient1343"
       x1="9.6310167"
       y1="59.841152"
       x2="46.732319"
       y2="59.622265"
       gradientUnits="userSpaceOnUse" />
  </defs>
  <sodipodi:namedview
     id="base"
     pagecolor="#ffffff"
     bordercolor="#666666"
     borderopacity="1.0"
     inkscape:pageopacity="0.0"
     inkscape:pageshadow="2"
     inkscape:zoom="9.1371454"
     inkscape:cx="43.086185"
     inkscape:cy="26.997962"
     inkscape:current-layer="layer1"
     showgrid="true"
     inkscape:document-units="px"
     inkscape:grid-bbox="true"
     inkscape:window-width="1400"
     inkscape:window-height="994"
     inkscape:window-x="-4"
     inkscape:window-y="-4" />
  <metadata
     id="metadata1312">
    <rdf:RDF>
      <cc:Work
         rdf:about="">
        <dc:format>image/svg+xml</dc:format>
        <dc:type
           rdf:resource="http://purl.org/dc/dcmitype/StillImage" />
      </cc:Work>
    </rdf:RDF>
  </metadata>
  <g
     id="layer1"
     inkscape:label="Layer 1"
     inkscape:groupmode="layer">
    <path
       sodipodi:type="arc"
       style="opacity:1;fill:url(#linearGradient1329);fill-opacity:1.0;fill-rule:evenodd;stroke:#151312;stroke-width:2.11655303;stroke-linecap:round;stroke-linejoin:round;stroke-miterlimit:4;stroke-dasharray:none;stroke-dashoffset:0;stroke-opacity:1"
       id="path1329"
       sodipodi:cx="31.410248"
       sodipodi:cy="38.718582"
       sodipodi:rx="18.167599"
       sodipodi:ry="18.277042"
       d="M 49.577847,38.718582 A 18.167599,18.277042 0 1 1 49.577237,38.568898"
       sodipodi:start="0"
       sodipodi:end="6.2749955"
       sodipodi:open="true"
       transform="matrix(1.434128,0,0,1.400865,-12.51838,-27.26057)" />
    <rect
       style="opacity:1;fill:url(#linearGradient1343);fill-opacity:1.0;fill-rule:evenodd;stroke:#151312;stroke-width:1.98520994;stroke-linecap:round;stroke-linejoin:round;stroke-miterlimit:4;stroke-dasharray:none;stroke-dashoffset:0;stroke-opacity:1"
       id="rect1331"
       width="62.007854"
       height="8.0062351"
       x="1"
       y="55.000774"
       rx="3.2503023"
       ry="1.0000002"
       inkscape:export-xdpi="90"
       inkscape:export-ydpi="90" />
    <path
       style="fill:#000000;fill-opacity:0.75939852;fill-rule:nonzero;stroke:none;stroke-width:1px;stroke-linecap:butt;stroke-linejoin:miter;stroke-opacity:1"
       id="path1333"
       d="M 74.883332,8.4604814 C 75.496308,8.9431899 76.262234,9.2246869 76.976972,9.5516922 C 78.057134,9.9379684 79.106705,10.39107 80.167668,10.820271 C 81.314708,11.358111 82.465416,11.853414 83.673113,12.259221 C 85.15221,12.690634 86.474799,13.441844 87.862121,14.062602 C 89.108125,14.700918 90.413171,15.253303 91.602463,15.982956 C 92.861049,16.846874 94.022644,17.838797 95.171307,18.827745 C 96.122173,19.712722 96.77713,20.788203 97.010755,22.023603 C 97.237493,23.23419 97.428391,24.501965 97.107862,25.705388 C 96.533365,26.900339 95.682784,27.957148 94.924294,29.056947 C 94.139878,30.102937 93.23583,31.064222 92.371631,32.053754 C 91.602044,32.852535 90.84078,33.651132 89.966512,34.351332 C 89.056792,35.083259 88.203786,35.876034 87.398204,36.708223 C 86.519346,37.375752 85.856329,38.236597 85.131514,39.040254 C 84.259963,39.928371 83.378609,40.805801 82.475085,41.665625 C 81.451304,42.510728 80.554715,43.363181 80.043877,44.556987 C 79.708035,45.474923 79.598475,46.389695 79.758997,47.346289 C 79.936163,48.583846 80.580747,49.609219 81.407474,50.571723 C 82.444028,51.653078 83.743951,52.483 84.981721,53.34977 C 85.509076,53.713671 85.241239,53.534437 85.785408,53.887244 L 83.921258,55 C 83.371284,54.644089 83.645566,54.821618 83.098409,54.467414 C 81.826112,53.614641 80.504195,52.771195 79.487237,51.646548 C 78.644739,50.668589 77.918684,49.616348 77.753396,48.348478 C 77.576024,47.35873 77.643001,46.413094 77.978613,45.456337 C 78.492825,44.232538 79.306461,43.318127 80.389676,42.473328 C 81.289246,41.615053 82.16586,40.741817 83.046687,39.867152 C 83.769545,39.063853 84.41911,38.187647 85.293414,37.520864 C 86.133549,36.713364 86.952878,35.878146 87.866913,35.14114 C 88.761039,34.468809 89.506387,33.664447 90.280384,32.877166 C 91.177844,31.914308 92.035677,30.910608 92.861777,29.89544 C 93.638183,28.824864 94.406077,27.736077 95.061618,26.600459 C 95.435266,25.448622 95.227753,24.1903 95.005674,23.020022 C 94.785871,21.826762 94.178469,20.790597 93.260036,19.932545 C 92.13125,18.935405 90.950508,17.973703 89.690391,17.125643 C 88.517199,16.403388 87.21671,15.861096 85.994287,15.21676 C 84.612494,14.5933 83.272068,13.878254 81.804736,13.436443 C 80.579636,13.04674 79.444433,12.506624 78.269731,12.004234 C 77.211943,11.56487 76.159179,11.11661 75.08121,10.721407 C 74.39645,10.417293 73.61984,10.045739 73,9.7410372 L 74.883332,8.4604814 z " />
    <path
       style="fill:none;fill-opacity:0.75;fill-rule:evenodd;stroke:#000000;stroke-width:2;stroke-linecap:butt;stroke-linejoin:miter;stroke-opacity:1;stroke-miterlimit:4;stroke-dasharray:none"
       d="M 24,4 C 38,9 43.516586,10.494048 46,17 C 48.483414,23.505952 35.67167,27.980615 35.67167,27.980615 C 35.67167,27.980615 30.98816,29.660117 26.806757,32.139463 C 16.070658,38.505387 37.539076,52 37.539076,52"
       id="path2220"
       sodipodi:nodetypes="cscsc" />
  </g>
</svg>
