<?xml version="1.0" encoding="UTF-8" standalone="no"?>
<!-- Created with Inkscape (http://www.inkscape.org/) -->

<svg
   xmlns:dc="http://purl.org/dc/elements/1.1/"
   xmlns:cc="http://creativecommons.org/ns#"
   xmlns:rdf="http://www.w3.org/1999/02/22-rdf-syntax-ns#"
   xmlns:svg="http://www.w3.org/2000/svg"
   xmlns="http://www.w3.org/2000/svg"
   xmlns:xlink="http://www.w3.org/1999/xlink"
   xmlns:sodipodi="http://sodipodi.sourceforge.net/DTD/sodipodi-0.dtd"
   xmlns:inkscape="http://www.inkscape.org/namespaces/inkscape"
   width="64px"
   height="64px"
   id="svg21387"
   sodipodi:version="0.32"
   inkscape:version="0.48.4 r9939"
   sodipodi:docname="Exclamation mark (yellow).svg"
   inkscape:export-filename="C:\Marek\Dokumenty\Visual Studio 2013\Projects\Visual C#\ProGammaX2\Resources\Inkscape\Icons\exclamation mark yellow.png"
   inkscape:export-xdpi="90"
   inkscape:export-ydpi="90"
   version="1.1">
  <title
     id="title3018">Exclamation mark (yellow)</title>
  <defs
     id="defs21389">
    <linearGradient
       inkscape:collect="always"
       id="linearGradient4640">
      <stop
         style="stop-color:#000000;stop-opacity:1;"
         offset="0"
         id="stop4642" />
      <stop
         style="stop-color:#000000;stop-opacity:0;"
         offset="1"
         id="stop4644" />
    </linearGradient>
    <marker
       inkscape:stockid="Arrow1Lstart"
       orient="auto"
       refY="0.0"
       refX="0.0"
       id="Arrow1Lstart"
       style="overflow:visible">
      <path
         id="path3992"
         d="M 0.0,0.0 L 5.0,-5.0 L -12.5,0.0 L 5.0,5.0 L 0.0,0.0 z "
         style="fill-rule:evenodd;stroke:#000000;stroke-width:1.0pt"
         transform="scale(0.8) translate(12.5,0)" />
    </marker>
    <linearGradient
       id="linearGradient24047">
      <stop
         id="stop24049"
         offset="0"
         style="stop-color:#4f84d6;stop-opacity:1;" />
      <stop
         id="stop24051"
         offset="1"
         style="stop-color:#074872;stop-opacity:0.89380533;" />
    </linearGradient>
    <linearGradient
       id="linearGradient20449">
      <stop
         style="stop-color:#a4a4a4;stop-opacity:1;"
         offset="0"
         id="stop20451" />
      <stop
         style="stop-color:#a4a4a4;stop-opacity:0;"
         offset="1"
         id="stop20453" />
    </linearGradient>
    <radialGradient
       inkscape:collect="always"
       xlink:href="#linearGradient20449"
       id="radialGradient20488"
       gradientUnits="userSpaceOnUse"
       gradientTransform="matrix(0.95607599,0,0,0.08269028,0.98241884,51.89566)"
       cx="30.5"
       cy="90.265427"
       fx="30.5"
       fy="90.265427"
       r="33" />
    <linearGradient
       inkscape:collect="always"
       xlink:href="#linearGradient24047"
       id="linearGradient24067"
       x1="35.830711"
       y1="45.11729"
       x2="39.23579"
       y2="45.11729"
       gradientUnits="userSpaceOnUse"
       gradientTransform="matrix(0.499999,0,0,0.584947,22.82792,19.21452)" />
    <linearGradient
       inkscape:collect="always"
       xlink:href="#linearGradient24047-7"
       id="linearGradient24067-1"
       x1="35.830711"
       y1="45.11729"
       x2="39.23579"
       y2="45.11729"
       gradientUnits="userSpaceOnUse"
       gradientTransform="matrix(0.499999,0,0,0.584947,22.82792,19.21452)" />
    <linearGradient
       id="linearGradient24047-7">
      <stop
         id="stop24049-4"
         offset="0"
         style="stop-color:#4f84d6;stop-opacity:1;" />
      <stop
         id="stop24051-0"
         offset="1"
         style="stop-color:#074872;stop-opacity:0.89380533;" />
    </linearGradient>
    <linearGradient
       inkscape:collect="always"
       xlink:href="#linearGradient4640"
       id="linearGradient4646"
       x1="25.643136"
       y1="36.82533"
       x2="37.390099"
       y2="36.82533"
       gradientUnits="userSpaceOnUse" />
    <filter
       inkscape:collect="always"
       id="filter4812"
       x="-0.11370211"
       width="1.2274042"
       y="-0.018985433"
       height="1.0379709">
      <feGaussianBlur
         inkscape:collect="always"
         stdDeviation="0.27411894"
         id="feGaussianBlur4814" />
    </filter>
    <filter
       inkscape:collect="always"
       id="filter4824"
       x="-0.11126347"
       width="1.2225269"
       y="-0.1014461"
       height="1.2028922">
      <feGaussianBlur
         inkscape:collect="always"
         stdDeviation="0.22243724"
         id="feGaussianBlur4826" />
    </filter>
  </defs>
  <sodipodi:namedview
     id="base"
     pagecolor="#ffffff"
     bordercolor="#666666"
     borderopacity="1.0"
     inkscape:pageopacity="0.0"
     inkscape:pageshadow="2"
     inkscape:zoom="6.4609375"
     inkscape:cx="-30.316514"
     inkscape:cy="28.970075"
     inkscape:current-layer="layer1"
     showgrid="true"
     inkscape:document-units="px"
     inkscape:grid-bbox="true"
     inkscape:window-width="1400"
     inkscape:window-height="994"
     inkscape:window-x="-4"
     inkscape:window-y="-4"
     inkscape:window-maximized="0" />
  <metadata
     id="metadata21392">
    <rdf:RDF>
      <cc:Work
         rdf:about="">
        <dc:format>image/svg+xml</dc:format>
        <dc:type
           rdf:resource="http://purl.org/dc/dcmitype/StillImage" />
        <dc:title>Exclamation mark (yellow)</dc:title>
      </cc:Work>
    </rdf:RDF>
  </metadata>
  <g
     id="layer1"
     inkscape:label="Layer 1"
     inkscape:groupmode="layer">
    <rect
       style="fill:url(#radialGradient20488);fill-opacity:1;fill-rule:evenodd;stroke:none"
       id="rect19574"
       width="56.748489"
       height="14"
       x="5.6553807"
       y="50" />
    <text
       xml:space="preserve"
       style="font-size:40px;font-style:normal;font-weight:normal;line-height:125%;letter-spacing:0px;word-spacing:0px;fill:#000000;fill-opacity:1;stroke:none;font-family:Sans"
       x="25.692865"
       y="35.211609"
       id="text3030"
       sodipodi:linespacing="125%"><tspan
         sodipodi:role="line"
         id="tspan3032" /></text>
    <path
       style="opacity:0.9900332;fill:#1186fe;fill-opacity:1;fill-rule:nonzero;stroke:#000000;stroke-width:0;stroke-linecap:round;stroke-linejoin:round;stroke-miterlimit:4;stroke-opacity:1;stroke-dasharray:none;stroke-dashoffset:0"
       d=""
       id="path4694"
       inkscape:connector-curvature="0" />
    <path
       style="opacity:0.99003319999999995;fill:#fe9c11;fill-opacity:1;fill-rule:nonzero;stroke:none;filter:url(#filter4812)"
       d="m 31.165743,29.619494 c -0.392419,-0.194242 -0.84171,-0.590631 -1.083434,-0.955862 l -0.412985,-0.624001 -0.04165,-15.218515 c -0.04041,-14.7676966 -0.03281,-15.2356966 0.256684,-15.7985486 0.362952,-0.705674 1.02743,-1.35474 1.613661,-1.576234 1.173262,-0.443289 2.646417,0.07313 3.431627,1.202974 l 0.466399,0.671102 0,15.1160806 c 0,8.313844 -0.05324,15.306339 -0.118319,15.538876 -0.167501,0.598545 -0.991694,1.486524 -1.625566,1.751373 -0.763778,0.319127 -1.707254,0.278433 -2.486419,-0.107245 l 0,0 z"
       id="path4668-2"
       inkscape:connector-curvature="0"
       transform="matrix(1.218676,0,0,0.95080583,-7.5719613,14.78258)" />
    <path
       sodipodi:type="arc"
       style="opacity:0.99003319999999995;fill:#fe9c11;fill-opacity:1;fill-rule:nonzero;stroke:#000000;stroke-width:0;stroke-linecap:round;stroke-linejoin:round;stroke-miterlimit:4;stroke-opacity:1;stroke-dasharray:none;stroke-dashoffset:0;filter:url(#filter4824)"
       id="path4754"
       sodipodi:cx="33.044739"
       sodipodi:cy="13.697702"
       sodipodi:rx="2.3990326"
       sodipodi:ry="2.6311972"
       d="m 35.443771,13.697702 a 2.3990326,2.6311972 0 1 1 -8e-5,-0.02155"
       sodipodi:start="0"
       sodipodi:end="6.2749955"
       sodipodi:open="true"
       transform="matrix(1.6652361,0,0,1.5645161,-22.988598,28.794633)" />
  </g>
</svg>
