<?xml version="1.0" encoding="UTF-8" standalone="no"?>
<!-- Created with Inkscape (http://www.inkscape.org/) -->

<svg
   xmlns:dc="http://purl.org/dc/elements/1.1/"
   xmlns:cc="http://creativecommons.org/ns#"
   xmlns:rdf="http://www.w3.org/1999/02/22-rdf-syntax-ns#"
   xmlns:svg="http://www.w3.org/2000/svg"
   xmlns="http://www.w3.org/2000/svg"
   xmlns:xlink="http://www.w3.org/1999/xlink"
   xmlns:sodipodi="http://sodipodi.sourceforge.net/DTD/sodipodi-0.dtd"
   xmlns:inkscape="http://www.inkscape.org/namespaces/inkscape"
   width="64px"
   height="64px"
   id="svg3172"
   sodipodi:version="0.32"
   inkscape:version="0.47 r22583"
   sodipodi:docname="Folder1_Open.svg"
   inkscape:export-filename="C:\Users\Marek\Documents\Visual Studio 2008\Projects\ProGammaX\Resources\Inkscape\Icons\Folder1_Open.png"
   inkscape:export-xdpi="90"
   inkscape:export-ydpi="90"
   version="1.1">
  <defs
     id="defs3174">
    <inkscape:perspective
       sodipodi:type="inkscape:persp3d"
       inkscape:vp_x="0 : 32 : 1"
       inkscape:vp_y="0 : 1000 : 0"
       inkscape:vp_z="64 : 32 : 1"
       inkscape:persp3d-origin="32 : 21.333333 : 1"
       id="perspective2939" />
    <linearGradient
       id="linearGradient6902">
      <stop
         id="stop6904"
         offset="0"
         style="stop-color:#faf69c;stop-opacity:0.51327431;" />
      <stop
         id="stop6906"
         offset="1"
         style="stop-color:#fff7e0;stop-opacity:1;" />
    </linearGradient>
    <linearGradient
       id="linearGradient4128">
      <stop
         id="stop4130"
         offset="0"
         style="stop-color:#d8a73c;stop-opacity:1;" />
      <stop
         id="stop4132"
         offset="1"
         style="stop-color:#e6cf49;stop-opacity:0.86725664;" />
    </linearGradient>
    <linearGradient
       id="linearGradient4106">
      <stop
         style="stop-color:#ce9a00;stop-opacity:1;"
         offset="0"
         id="stop4108" />
      <stop
         style="stop-color:#ce9a00;stop-opacity:0.24778761;"
         offset="1"
         id="stop4110" />
    </linearGradient>
    <linearGradient
       id="linearGradient4098">
      <stop
         style="stop-color:#d8a73c;stop-opacity:1;"
         offset="0"
         id="stop4100" />
      <stop
         style="stop-color:#efe088;stop-opacity:0.74336284;"
         offset="1"
         id="stop4102" />
    </linearGradient>
    <linearGradient
       inkscape:collect="always"
       xlink:href="#linearGradient4128"
       id="linearGradient4155"
       gradientUnits="userSpaceOnUse"
       x1="4.0659008"
       y1="33.711002"
       x2="46.5"
       y2="33.711002"
       gradientTransform="translate(-70.9341,-6.05e-4)" />
    <linearGradient
       inkscape:collect="always"
       xlink:href="#linearGradient4098"
       id="linearGradient4157"
       gradientUnits="userSpaceOnUse"
       x1="4.0659008"
       y1="33.711004"
       x2="46.5"
       y2="33.711004"
       gradientTransform="translate(-70.9341,-6.05e-4)" />
    <linearGradient
       inkscape:collect="always"
       xlink:href="#linearGradient4106"
       id="linearGradient4159"
       gradientUnits="userSpaceOnUse"
       x1="5.5"
       y1="39.003628"
       x2="59.934097"
       y2="39.003628"
       gradientTransform="translate(-70.9341,-6.05e-4)" />
    <linearGradient
       inkscape:collect="always"
       xlink:href="#linearGradient4128"
       id="linearGradient6017"
       gradientUnits="userSpaceOnUse"
       gradientTransform="translate(-4.54664e-6,-1e-5)"
       x1="16.5"
       y1="30.706167"
       x2="45.5"
       y2="30.706167" />
    <linearGradient
       inkscape:collect="always"
       xlink:href="#linearGradient6902"
       id="linearGradient6019"
       gradientUnits="userSpaceOnUse"
       x1="16.5"
       y1="30.744862"
       x2="45.5"
       y2="30.744862"
       gradientTransform="matrix(1.961734,0,0,2,-25.25937,-29.99039)" />
    <linearGradient
       inkscape:collect="always"
       xlink:href="#linearGradient6902"
       id="linearGradient2943"
       gradientUnits="userSpaceOnUse"
       x1="-6.5051847e-007"
       y1="40.476357"
       x2="56.630871"
       y2="39.16077"
       gradientTransform="matrix(1.0086949,0,0,0.53831703,-0.27172776,27.045165)" />
    <linearGradient
       inkscape:collect="always"
       xlink:href="#linearGradient4098"
       id="linearGradient3717"
       x1="-0.0096133193"
       y1="48.834278"
       x2="62.512367"
       y2="48.834278"
       gradientUnits="userSpaceOnUse" />
  </defs>
  <sodipodi:namedview
     id="base"
     pagecolor="#ffffff"
     bordercolor="#666666"
     borderopacity="1.0"
     inkscape:pageopacity="0.0"
     inkscape:pageshadow="2"
     inkscape:zoom="6.4609375"
     inkscape:cx="33.557001"
     inkscape:cy="22.321115"
     inkscape:current-layer="layer1"
     showgrid="true"
     inkscape:document-units="px"
     inkscape:grid-bbox="true"
     inkscape:window-width="1280"
     inkscape:window-height="885"
     inkscape:window-x="-9"
     inkscape:window-y="-9"
     inkscape:window-maximized="1" />
  <metadata
     id="metadata3177">
    <rdf:RDF>
      <cc:Work
         rdf:about="">
        <dc:format>image/svg+xml</dc:format>
        <dc:type
           rdf:resource="http://purl.org/dc/dcmitype/StillImage" />
        <dc:title></dc:title>
      </cc:Work>
    </rdf:RDF>
  </metadata>
  <g
     id="layer1"
     inkscape:label="Layer 1"
     inkscape:groupmode="layer">
    <g
       id="g4134"
       inkscape:export-filename="Z:\Visual Studio 2008\Projects\GameLoader 2008\Resources\Inkscape\Icons\Folder_Big.png"
       inkscape:export-xdpi="103.0998"
       inkscape:export-ydpi="103.0998"
       transform="translate(70.9341,6.05e-4)">
      <path
         id="path3221"
         d="M 10,10 L 20.430472,10 L 26,15.47763 L 46,12.53688 L 46,47 L 6,57.422007 L 4.5659008,16.561064 L 10,10 z "
         style="fill:url(#linearGradient4155);fill-opacity:1;fill-rule:evenodd;stroke:url(#linearGradient4157);stroke-width:1px;stroke-linecap:butt;stroke-linejoin:miter;stroke-opacity:1" />
      <path
         id="path3223"
         d="M 6,57.499395 L 15,29 L 29,27.550181 L 33,23 L 59.434099,20.50786 L 46,47 L 6,57.499395 z "
         style="fill:url(#linearGradient4159);fill-opacity:1;fill-rule:evenodd;stroke:#f0f396;stroke-width:1px;stroke-linecap:butt;stroke-linejoin:miter;stroke-opacity:1" />
    </g>
    <path
       sodipodi:nodetypes="cccccccc"
       style="fill:url(#linearGradient6017);fill-opacity:1.0;fill-rule:evenodd;stroke:url(#linearGradient6019);stroke-width:2;stroke-linecap:round;stroke-linejoin:round;stroke-opacity:1;stroke-miterlimit:4;stroke-dasharray:none"
       d="M 13.97531,5.14383 L 30.608537,4.989054 L 38.65473,14.00961 L 63.01866,14.00961 L 63.01866,58.00961 L 8.090108,58.00961 L 8.090108,12.00961 L 13.97531,5.14383 z "
       id="path4231" />
    <path
       style="fill:url(#linearGradient3717);fill-opacity:1;fill-rule:evenodd;stroke:url(#linearGradient2943);stroke-width:1.47376752000000000;stroke-linecap:round;stroke-linejoin:round;stroke-miterlimit:4;stroke-opacity:1;stroke-dasharray:none"
       d="m 7.2761825,58.272725 -6.38142129,-13.46118 -0.16749077,-5.415716 53.61159856,0 7.436616,18.71677 -54.4993025,0.160126 z"
       id="path4233"
       sodipodi:nodetypes="cccccc"
       inkscape:export-xdpi="90"
       inkscape:export-ydpi="90" />
  </g>
</svg>
