<?xml version="1.0" encoding="UTF-8" standalone="no"?>
<!-- Created with Inkscape (http://www.inkscape.org/) -->
<svg
   xmlns:dc="http://purl.org/dc/elements/1.1/"
   xmlns:cc="http://web.resource.org/cc/"
   xmlns:rdf="http://www.w3.org/1999/02/22-rdf-syntax-ns#"
   xmlns:svg="http://www.w3.org/2000/svg"
   xmlns="http://www.w3.org/2000/svg"
   xmlns:xlink="http://www.w3.org/1999/xlink"
   xmlns:sodipodi="http://inkscape.sourceforge.net/DTD/sodipodi-0.dtd"
   xmlns:inkscape="http://www.inkscape.org/namespaces/inkscape"
   width="64px"
   height="64px"
   id="svg3172"
   sodipodi:version="0.32"
   inkscape:version="0.43"
   sodipodi:docbase="Z:\Visual Studio 2008\Projects\GameLoader 2008\Resources\Inkscape\Icons"
   sodipodi:docname="Folder.svg">
  <defs
     id="defs3174">
    <linearGradient
       id="linearGradient4128">
      <stop
         id="stop4130"
         offset="0"
         style="stop-color:#d8a73c;stop-opacity:1;" />
      <stop
         id="stop4132"
         offset="1"
         style="stop-color:#e6cf49;stop-opacity:0.56637168;" />
    </linearGradient>
    <linearGradient
       id="linearGradient4106">
      <stop
         style="stop-color:#ce9a00;stop-opacity:1;"
         offset="0"
         id="stop4108" />
      <stop
         style="stop-color:#ce9a00;stop-opacity:0.24778761;"
         offset="1"
         id="stop4110" />
    </linearGradient>
    <linearGradient
       id="linearGradient4098">
      <stop
         style="stop-color:#d8a73c;stop-opacity:1;"
         offset="0"
         id="stop4100" />
      <stop
         style="stop-color:#e6cf49;stop-opacity:1;"
         offset="1"
         id="stop4102" />
    </linearGradient>
    <linearGradient
       inkscape:collect="always"
       xlink:href="#linearGradient4098"
       id="linearGradient4104"
       x1="4.0659008"
       y1="33.711004"
       x2="46.5"
       y2="33.711004"
       gradientUnits="userSpaceOnUse" />
    <linearGradient
       inkscape:collect="always"
       xlink:href="#linearGradient4106"
       id="linearGradient4116"
       x1="5.5"
       y1="39.003628"
       x2="59.934097"
       y2="39.003628"
       gradientUnits="userSpaceOnUse" />
    <linearGradient
       inkscape:collect="always"
       xlink:href="#linearGradient4128"
       id="linearGradient4126"
       x1="4.0659008"
       y1="33.711002"
       x2="46.5"
       y2="33.711002"
       gradientUnits="userSpaceOnUse" />
  </defs>
  <sodipodi:namedview
     id="base"
     pagecolor="#ffffff"
     bordercolor="#666666"
     borderopacity="1.0"
     inkscape:pageopacity="0.0"
     inkscape:pageshadow="2"
     inkscape:zoom="12.921875"
     inkscape:cx="-2.42257"
     inkscape:cy="34.759661"
     inkscape:current-layer="layer1"
     showgrid="true"
     inkscape:document-units="px"
     inkscape:grid-bbox="true"
     inkscape:window-width="1400"
     inkscape:window-height="994"
     inkscape:window-x="-4"
     inkscape:window-y="-4" />
  <metadata
     id="metadata3177">
    <rdf:RDF>
      <cc:Work
         rdf:about="">
        <dc:format>image/svg+xml</dc:format>
        <dc:type
           rdf:resource="http://purl.org/dc/dcmitype/StillImage" />
      </cc:Work>
    </rdf:RDF>
  </metadata>
  <g
     id="layer1"
     inkscape:label="Layer 1"
     inkscape:groupmode="layer">
    <image
       xlink:href="06954.png"
       sodipodi:absref="Z:\Visual Studio 2008\Projects\GameLoader 2008\Resources\Inkscape\Icons\06954.png"
       width="32"
       height="32"
       id="image3170"
       x="-84"
       y="18" />
    <image
       xlink:href="06954a.png"
       sodipodi:absref="Z:\Visual Studio 2008\Projects\GameLoader 2008\Resources\Inkscape\Icons\06954a.png"
       width="64"
       height="64"
       id="image3218"
       x="-73"
       y="-4" />
    <path
       style="fill:url(#linearGradient4126);fill-opacity:1.0;fill-rule:evenodd;stroke:url(#linearGradient4104);stroke-width:1px;stroke-linecap:butt;stroke-linejoin:miter;stroke-opacity:1"
       d="M 10,10 L 20.430472,10 L 26,15.47763 L 46,12.53688 L 46,47 L 6,57.422007 L 4.5659008,16.561064 L 10,10 z "
       id="path3221" />
    <path
       style="fill:url(#linearGradient4116);fill-opacity:1.0;fill-rule:evenodd;stroke:#f0f396;stroke-width:1px;stroke-linecap:butt;stroke-linejoin:miter;stroke-opacity:1"
       d="M 6,57.499395 L 15,29 L 29,27.550181 L 33,23 L 59.434099,20.50786 L 46,47 L 6,57.499395 z "
       id="path3223" />
  </g>
</svg>
