<?xml version="1.0" encoding="UTF-8" standalone="no"?>
<!-- Created with Inkscape (http://www.inkscape.org/) -->
<svg
   xmlns:dc="http://purl.org/dc/elements/1.1/"
   xmlns:cc="http://web.resource.org/cc/"
   xmlns:rdf="http://www.w3.org/1999/02/22-rdf-syntax-ns#"
   xmlns:svg="http://www.w3.org/2000/svg"
   xmlns="http://www.w3.org/2000/svg"
   xmlns:xlink="http://www.w3.org/1999/xlink"
   xmlns:sodipodi="http://inkscape.sourceforge.net/DTD/sodipodi-0.dtd"
   xmlns:inkscape="http://www.inkscape.org/namespaces/inkscape"
   width="64px"
   height="64px"
   id="svg4543"
   sodipodi:version="0.32"
   inkscape:version="0.43"
   sodipodi:docbase="Z:\Visual Studio 2008\Projects\GameLoader 2008\Resources\Inkscape\Icons"
   sodipodi:docname="View DosBox Conf File.svg"
   inkscape:export-filename="Z:\Visual Studio 2008\Projects\GameLoader 2008\Resources\Inkscape\Icons\View DosBox Conf File.png"
   inkscape:export-xdpi="90"
   inkscape:export-ydpi="90">
  <defs
     id="defs4545">
    <linearGradient
       id="linearGradient11247">
      <stop
         style="stop-color:#000000;stop-opacity:0.30980393;"
         offset="0"
         id="stop11249" />
      <stop
         style="stop-color:#040404;stop-opacity:1;"
         offset="1"
         id="stop11251" />
    </linearGradient>
    <linearGradient
       id="linearGradient10368">
      <stop
         id="stop10370"
         offset="0"
         style="stop-color:#434343;stop-opacity:1;" />
      <stop
         id="stop10372"
         offset="1"
         style="stop-color:#999999;stop-opacity:0.79646015;" />
    </linearGradient>
    <linearGradient
       id="linearGradient2263">
      <stop
         style="stop-color:#999999;stop-opacity:1;"
         offset="0"
         id="stop2265" />
      <stop
         style="stop-color:#999999;stop-opacity:0;"
         offset="1"
         id="stop2267" />
    </linearGradient>
    <linearGradient
       inkscape:collect="always"
       xlink:href="#linearGradient2263"
       id="linearGradient3170"
       gradientUnits="userSpaceOnUse"
       x1="21.762604"
       y1="23.389345"
       x2="99.849266"
       y2="46.576595" />
    <linearGradient
       id="linearGradient5256">
      <stop
         style="stop-color:#bab8cd;stop-opacity:1;"
         offset="0"
         id="stop5258" />
      <stop
         style="stop-color:#9c9c9c;stop-opacity:0.2920354;"
         offset="1"
         id="stop5260" />
    </linearGradient>
    <linearGradient
       id="linearGradient6488">
      <stop
         style="stop-color:#afecf5;stop-opacity:1;"
         offset="0"
         id="stop6490" />
      <stop
         style="stop-color:#7c7c7c;stop-opacity:0.44313726;"
         offset="1"
         id="stop6492" />
    </linearGradient>
    <linearGradient
       inkscape:collect="always"
       xlink:href="#linearGradient11247"
       id="linearGradient9487"
       gradientUnits="userSpaceOnUse"
       gradientTransform="translate(3e-6,1.32801e-6)"
       x1="8.6684933"
       y1="5.1365972"
       x2="13.285788"
       y2="7.819984" />
    <linearGradient
       inkscape:collect="always"
       xlink:href="#linearGradient6488"
       id="linearGradient9491"
       gradientUnits="userSpaceOnUse"
       gradientTransform="translate(3e-6,1.327968e-6)"
       x1="35.753326"
       y1="25.770254"
       x2="51.695286"
       y2="55.642078" />
    <linearGradient
       inkscape:collect="always"
       xlink:href="#linearGradient10368"
       id="linearGradient9493"
       gradientUnits="userSpaceOnUse"
       gradientTransform="translate(3e-6,1.327968e-6)"
       x1="18.604101"
       y1="38.917107"
       x2="63.50362"
       y2="38.917107" />
    <linearGradient
       inkscape:collect="always"
       xlink:href="#linearGradient6488"
       id="linearGradient11267"
       x1="3.0451531"
       y1="5.5757275"
       x2="14.291834"
       y2="5.5757275"
       gradientUnits="userSpaceOnUse" />
  </defs>
  <sodipodi:namedview
     id="base"
     pagecolor="#ffffff"
     bordercolor="#666666"
     borderopacity="1.0"
     inkscape:pageopacity="0.0"
     inkscape:pageshadow="2"
     inkscape:zoom="12.921875"
     inkscape:cx="30.340863"
     inkscape:cy="32.073363"
     inkscape:current-layer="layer1"
     showgrid="true"
     inkscape:document-units="px"
     inkscape:grid-bbox="true"
     inkscape:window-width="1400"
     inkscape:window-height="994"
     inkscape:window-x="-4"
     inkscape:window-y="-4" />
  <metadata
     id="metadata4548">
    <rdf:RDF>
      <cc:Work
         rdf:about="">
        <dc:format>image/svg+xml</dc:format>
        <dc:type
           rdf:resource="http://purl.org/dc/dcmitype/StillImage" />
      </cc:Work>
    </rdf:RDF>
  </metadata>
  <g
     id="layer1"
     inkscape:label="Layer 1"
     inkscape:groupmode="layer"
     style="display:inline">
    <rect
       style="opacity:1;fill:url(#linearGradient3170);fill-opacity:1;fill-rule:evenodd;stroke:none;stroke-width:2;stroke-linecap:round;stroke-linejoin:round;stroke-miterlimit:4;stroke-dasharray:none;stroke-dashoffset:0;stroke-opacity:0.54511276"
       id="rect6496"
       width="51.482468"
       height="52"
       x="10.517532"
       y="12"
       rx="0"
       ry="23" />
    <path
       style="fill:url(#linearGradient9491);fill-opacity:1;fill-rule:evenodd;stroke:url(#linearGradient9493);stroke-width:2.118;stroke-linecap:round;stroke-linejoin:round;stroke-miterlimit:4;stroke-dasharray:none;stroke-dashoffset:0;stroke-opacity:1"
       d="M 15.151764,1.0768037 C 13.625229,2.2112593 11.446122,3.8075744 9.208634,5.42125 C 7.1457242,6.909023 5.0409428,8.4027539 3.3391773,9.527281 C 3.2712721,9.5721539 3.2093993,9.6160006 3.1427111,9.659736 L 3.1427111,55.064493 C 3.1427111,55.068161 3.1425721,55.087325 3.1427111,55.090984 C 3.1429878,55.094632 3.1422976,55.113843 3.1427111,55.117474 C 3.1433968,55.121084 3.141892,55.140369 3.1427111,55.143966 C 3.1436646,55.147549 3.1416253,55.166885 3.1427111,55.170456 C 3.3019501,55.588591 4.3922498,55.912192 5.696783,55.912192 L 48.403822,55.912192 C 49.509366,55.912192 50.453437,55.680782 50.810544,55.355891 C 50.830575,55.336174 50.868526,55.296765 50.884219,55.276418 C 50.903183,55.249032 50.922547,55.198807 50.933335,55.170456 C 50.936597,55.159745 50.955843,55.128306 50.957894,55.117474 C 50.95831,55.113843 50.95762,55.094632 50.957894,55.090984 C 50.958037,55.087325 50.957894,55.068161 50.957894,55.064493 L 50.957894,1.9245017 C 50.95776,1.9208444 50.958178,1.9016554 50.957894,1.8980119 C 50.957351,1.8943901 50.958586,1.8751289 50.957894,1.8715198 C 50.957078,1.8679244 50.934294,1.8486138 50.933335,1.8450299 C 50.803001,1.416534 49.73047,1.0768037 48.403822,1.0768037 L 15.151764,1.0768037 z "
       id="path3096"
       inkscape:export-filename="Z:\Visual Studio 2008\Projects\GameLoader 2008\Resources\Inkscape\Icons\profile11.png"
       inkscape:export-xdpi="90"
       inkscape:export-ydpi="90" />
    <path
       style="fill:url(#linearGradient11267);fill-opacity:1.0;fill-rule:evenodd;stroke:url(#linearGradient9487);stroke-width:2.06155157;stroke-linecap:round;stroke-linejoin:round;stroke-miterlimit:4;stroke-dasharray:none;stroke-dashoffset:0;stroke-opacity:1"
       d="M 13.260767,2.4756708 C 11.713652,3.4610572 9.8757856,4.6866612 8.0789465,5.9145984 C 6.6725627,6.8757083 5.2891029,7.825933 4.0759289,8.675784 L 10.706696,8.675784 C 11.856455,8.675784 12.840089,8.4258223 13.162534,8.0984472 C 13.185416,8.0729981 13.221279,8.0244635 13.23621,7.9980387 C 13.242648,7.9847159 13.256423,7.9613705 13.260767,7.9478366 C 13.261723,7.9444396 13.259948,7.9261424 13.260767,7.9227334 C 13.261453,7.9193135 13.260218,7.9010631 13.260767,7.8976302 C 13.261046,7.8941744 13.260629,7.8759947 13.260767,7.8725313 L 13.260767,2.4756708 z "
       id="path3092"
       inkscape:export-filename="Z:\Visual Studio 2008\Projects\GameLoader 2008\Resources\Inkscape\Icons\profile11.png"
       inkscape:export-xdpi="90"
       inkscape:export-ydpi="90" />
    <path
       style="fill:none;fill-opacity:0.75;fill-rule:evenodd;stroke:#000000;stroke-width:2;stroke-linecap:butt;stroke-linejoin:miter;stroke-miterlimit:4;stroke-dasharray:none;stroke-opacity:1"
       d="M 9,14 C 10.563336,14 25.454176,14 25.454176,14"
       id="path3984"
       inkscape:export-filename="Z:\Visual Studio 2008\Projects\GameLoader 2008\Resources\Inkscape\Icons\profile11.png"
       inkscape:export-xdpi="90"
       inkscape:export-ydpi="90" />
    <path
       style="fill:none;fill-opacity:0.75;fill-rule:evenodd;stroke:#000000;stroke-width:2;stroke-linecap:butt;stroke-linejoin:miter;stroke-miterlimit:4;stroke-dasharray:none;stroke-opacity:1"
       d="M 9,20 C 12.621888,20 47.120479,20 47.120479,20"
       id="path3986"
       inkscape:export-filename="Z:\Visual Studio 2008\Projects\GameLoader 2008\Resources\Inkscape\Icons\profile11.png"
       inkscape:export-xdpi="90"
       inkscape:export-ydpi="90" />
    <path
       style="fill:none;fill-opacity:0.75;fill-rule:evenodd;stroke:#000000;stroke-width:2;stroke-linecap:butt;stroke-linejoin:miter;stroke-miterlimit:4;stroke-dasharray:none;stroke-opacity:1"
       d="M 9,26 C 12.618106,26 47.080675,26 47.080675,26"
       id="path3988"
       inkscape:export-filename="Z:\Visual Studio 2008\Projects\GameLoader 2008\Resources\Inkscape\Icons\profile11.png"
       inkscape:export-xdpi="90"
       inkscape:export-ydpi="90" />
    <path
       style="fill:none;fill-opacity:0.75;fill-rule:evenodd;stroke:#000000;stroke-width:2;stroke-linecap:butt;stroke-linejoin:miter;stroke-miterlimit:4;stroke-dasharray:none;stroke-opacity:1"
       d="M 9,39 C 10.718107,39 27.083158,39 27.083158,39"
       id="path5782"
       inkscape:export-filename="Z:\Visual Studio 2008\Projects\GameLoader 2008\Resources\Inkscape\Icons\profile11.png"
       inkscape:export-xdpi="90"
       inkscape:export-ydpi="90" />
    <path
       style="fill:none;fill-opacity:0.75;fill-rule:evenodd;stroke:#000000;stroke-width:2;stroke-linecap:butt;stroke-linejoin:miter;stroke-miterlimit:4;stroke-dasharray:none;stroke-opacity:1"
       d="M 9,45 C 11.881014,45 39.322798,45 39.322798,45"
       id="path5784"
       inkscape:export-filename="Z:\Visual Studio 2008\Projects\GameLoader 2008\Resources\Inkscape\Icons\profile11.png"
       inkscape:export-xdpi="90"
       inkscape:export-ydpi="90" />
    <path
       style="fill:none;fill-opacity:0.75;fill-rule:evenodd;stroke:#000000;stroke-width:1.875;stroke-linecap:butt;stroke-linejoin:miter;stroke-miterlimit:4;stroke-dasharray:none;stroke-opacity:1"
       d="M 9.2031138,32.9375 C 10.329892,32.9375 21.0625,32.9375 21.0625,32.9375"
       id="path3085"
       inkscape:export-filename="Z:\Visual Studio 2008\Projects\GameLoader 2008\Resources\Inkscape\Icons\profile11.png"
       inkscape:export-xdpi="90"
       inkscape:export-ydpi="90" />
  </g>
</svg>
