<?xml version="1.0" encoding="UTF-8" standalone="no"?>
<!-- Created with Inkscape (http://www.inkscape.org/) -->
<svg
   xmlns:dc="http://purl.org/dc/elements/1.1/"
   xmlns:cc="http://web.resource.org/cc/"
   xmlns:rdf="http://www.w3.org/1999/02/22-rdf-syntax-ns#"
   xmlns:svg="http://www.w3.org/2000/svg"
   xmlns="http://www.w3.org/2000/svg"
   xmlns:xlink="http://www.w3.org/1999/xlink"
   xmlns:sodipodi="http://inkscape.sourceforge.net/DTD/sodipodi-0.dtd"
   xmlns:inkscape="http://www.inkscape.org/namespaces/inkscape"
   width="64px"
   height="64px"
   id="svg1308"
   sodipodi:version="0.32"
   inkscape:version="0.43"
   sodipodi:docbase="Z:\Visual Studio 2008\Projects\GameLoader 2008\Resources\Inkscape\Icons"
   sodipodi:docname="WC.svg"
   inkscape:export-filename="Z:\Visual Studio 2008\Projects\GameLoader 2008\Resources\Inkscape\Icons\WC.png"
   inkscape:export-xdpi="90"
   inkscape:export-ydpi="90">
  <defs
     id="defs1310">
    <linearGradient
       id="linearGradient3685">
      <stop
         id="stop3687"
         offset="0"
         style="stop-color:#000000;stop-opacity:1;" />
      <stop
         id="stop3689"
         offset="1"
         style="stop-color:#bcbcbc;stop-opacity:1;" />
    </linearGradient>
    <linearGradient
       id="linearGradient3081">
      <stop
         style="stop-color:#ffffff;stop-opacity:1;"
         offset="0"
         id="stop3083" />
      <stop
         style="stop-color:#9e9e9e;stop-opacity:1;"
         offset="1"
         id="stop3085" />
    </linearGradient>
    <radialGradient
       inkscape:collect="always"
       xlink:href="#linearGradient3081"
       id="radialGradient3087"
       cx="26.296856"
       cy="36"
       fx="26.296856"
       fy="36"
       r="21.796856"
       gradientTransform="matrix(1,0,0,0.344086,0,23.61289)"
       gradientUnits="userSpaceOnUse" />
    <radialGradient
       inkscape:collect="always"
       xlink:href="#linearGradient3081"
       id="radialGradient3671"
       cx="26"
       cy="20.5"
       fx="26"
       fy="20.5"
       r="19.5"
       gradientTransform="matrix(1,0,0,0.564103,2.331468e-15,8.9359)"
       gradientUnits="userSpaceOnUse" />
    <radialGradient
       inkscape:collect="always"
       xlink:href="#linearGradient3685"
       id="radialGradient3683"
       cx="26.258162"
       cy="39"
       fx="26.258162"
       fy="39"
       r="21.758162"
       gradientTransform="matrix(1,0,0,0.482578,2.331468e-15,20.17948)"
       gradientUnits="userSpaceOnUse" />
    <linearGradient
       inkscape:collect="always"
       xlink:href="#linearGradient3081"
       id="linearGradient3699"
       x1="12.5"
       y1="54"
       x2="40.045345"
       y2="54"
       gradientUnits="userSpaceOnUse" />
    <radialGradient
       inkscape:collect="always"
       xlink:href="#linearGradient3081"
       id="radialGradient4606"
       cx="26.040789"
       cy="61.25"
       fx="26.040789"
       fy="61.25"
       r="16.047514"
       gradientTransform="matrix(1,0,0,0.178043,2.331468e-15,50.34491)"
       gradientUnits="userSpaceOnUse" />
    <radialGradient
       inkscape:collect="always"
       xlink:href="#linearGradient3081"
       id="radialGradient4610"
       gradientUnits="userSpaceOnUse"
       gradientTransform="matrix(1,0,0,0.344086,0,23.61289)"
       cx="26.296856"
       cy="36"
       fx="26.296856"
       fy="36"
       r="21.796856" />
    <radialGradient
       inkscape:collect="always"
       xlink:href="#linearGradient3081"
       id="radialGradient5499"
       cx="26.002419"
       cy="33.354294"
       fx="26.002419"
       fy="33.354294"
       r="12.417775"
       gradientTransform="matrix(1,0,0,0.220994,-67.41536,44.59323)"
       gradientUnits="userSpaceOnUse" />
  </defs>
  <sodipodi:namedview
     id="base"
     pagecolor="#ffffff"
     bordercolor="#666666"
     borderopacity="1.0"
     inkscape:pageopacity="0.0"
     inkscape:pageshadow="2"
     inkscape:zoom="12.921875"
     inkscape:cx="35.415753"
     inkscape:cy="34.08948"
     inkscape:current-layer="layer1"
     showgrid="true"
     inkscape:document-units="px"
     inkscape:grid-bbox="true"
     inkscape:window-width="1400"
     inkscape:window-height="994"
     inkscape:window-x="-4"
     inkscape:window-y="-4" />
  <metadata
     id="metadata1313">
    <rdf:RDF>
      <cc:Work
         rdf:about="">
        <dc:format>image/svg+xml</dc:format>
        <dc:type
           rdf:resource="http://purl.org/dc/dcmitype/StillImage" />
      </cc:Work>
    </rdf:RDF>
  </metadata>
  <g
     id="layer1"
     inkscape:label="Layer 1"
     inkscape:groupmode="layer">
    <path
       style="opacity:1;fill:none;fill-opacity:0.75;fill-rule:evenodd;stroke:#000000;stroke-width:1;stroke-linecap:round;stroke-linejoin:round;stroke-miterlimit:4;stroke-dasharray:none;stroke-opacity:1"
       d="M 4.336142,7 L 46.336142,7 L 44.336142,3 L 6.336142,3 L 4.336142,7 z "
       id="path1317" />
    <path
       style="opacity:1;fill:url(#radialGradient3671);fill-opacity:1;fill-rule:evenodd;stroke:#000000;stroke-width:1;stroke-linecap:round;stroke-linejoin:round;stroke-miterlimit:4;stroke-dasharray:none;stroke-opacity:1"
       d="M 6.336142,8 L 6.336142,26 L 8.336142,27.484885 L 8.336142,29 L 12.80168,29 L 14.336142,27 L 36.336142,27 L 38.336142,29 L 42.336142,29 L 42.336142,27 L 44.336142,26 L 44.336142,8 L 6.336142,8 z "
       id="path1319" />
    <path
       style="opacity:1;fill:url(#radialGradient3683);fill-opacity:1;fill-rule:evenodd;stroke:#000000;stroke-width:1;stroke-linecap:butt;stroke-linejoin:miter;stroke-miterlimit:4;stroke-dasharray:none;stroke-opacity:1"
       d="M 8.336142,29 L 6.336142,29 L 6.336142,31 L 4.336142,31 L 4.336142,39 L 18.336142,47 C 23.075301,48.30486 27.799739,49.344753 32.336142,47 L 46.852466,39 L 46.852466,31 L 44.336142,31 L 44.336142,29 L 42.336142,29 L 38.336142,29 L 36.336142,27 L 14.336142,27 L 12.336142,29 L 8.336142,29 L 7.7714503,29 L 8.336142,29 z "
       id="path1321"
       sodipodi:nodetypes="ccccccccccccccccccc" />
    <path
       style="opacity:1;fill:url(#radialGradient3087);fill-opacity:1;fill-rule:evenodd;stroke:#000000;stroke-width:1;stroke-linecap:round;stroke-linejoin:round;stroke-miterlimit:4;stroke-dasharray:none;stroke-opacity:1"
       d="M 67.906288,28.090085 L 71.906288,28.090085 C 71.906288,28.090085 81.906288,22.090085 81.906288,22.090085 L 95.906288,22.090085 L 105.90629,28.090085 L 110.34522,28.090085 L 110.5,32.090085 L 107.90629,32.090085 L 107.90629,34.090085 L 101.90629,34.090085 L 99.906288,36.090085 L 77.906288,36.090085 L 75.906288,34.090085 L 69.906288,34.090085 L 69.906288,32.090085 L 67.906288,32.090085 L 67.906288,28.090085 z "
       id="path1323"
       sodipodi:nodetypes="ccccccccccccccccc" />
    <path
       style="opacity:1;fill:url(#linearGradient3699);fill-opacity:1;fill-rule:evenodd;stroke:#000000;stroke-width:1;stroke-linecap:round;stroke-linejoin:round;stroke-miterlimit:4;stroke-dasharray:none;stroke-opacity:1"
       d="M 18.336142,47 C 18.233329,50.968221 19.482743,55.408529 12.336142,57 L 38.881487,57 C 31.044629,56.1317 32.509142,51.208956 32.336142,47 C 27.204746,48.858919 22.645016,48.431172 18.336142,47 z "
       id="path1325"
       sodipodi:nodetypes="ccccc" />
    <rect
       style="opacity:1;fill:url(#radialGradient4606);fill-opacity:1;fill-rule:evenodd;stroke:#000000;stroke-width:1;stroke-linecap:round;stroke-linejoin:round;stroke-miterlimit:4;stroke-dasharray:none;stroke-dashoffset:0;stroke-opacity:1"
       id="rect1327"
       width="31.095028"
       height="3.6819444"
       x="9.8294153"
       y="56.849163"
       ry="1.9995391"
       rx="0" />
    <path
       style="opacity:1;fill:none;fill-opacity:0.75;fill-rule:evenodd;stroke:#000000;stroke-width:1;stroke-linecap:butt;stroke-linejoin:miter;stroke-miterlimit:4;stroke-dasharray:none;stroke-opacity:1"
       d="M 44.5,12.5 L 47.605175,12.5"
       id="path2202" />
    <path
       sodipodi:type="arc"
       style="opacity:1;fill:none;fill-opacity:1;fill-rule:evenodd;stroke:#000000;stroke-width:1.58423901;stroke-linecap:round;stroke-linejoin:round;stroke-miterlimit:4;stroke-dasharray:none;stroke-dashoffset:0;stroke-opacity:1"
       id="path2206"
       sodipodi:cx="55.525997"
       sodipodi:cy="17.37364"
       sodipodi:rx="2.5925031"
       sodipodi:ry="2.8246675"
       d="M 58.1185,17.37364 A 2.5925031,2.8246675 0 1 1 58.118413,17.350507"
       sodipodi:start="0"
       sodipodi:end="6.2749955"
       sodipodi:open="true"
       transform="matrix(1,0,0,0.398436,-5.281743,5.518774)" />
    <path
       sodipodi:nodetypes="ccccccccccccccccc"
       id="path4608"
       d="M 4.5,34.965538 L 8.5,34.965538 C 8.5,34.965538 18.5,40.965538 18.5,40.965538 C 24.118801,42.512756 28.523186,42.086549 32.5,40.965538 L 42.5,34.965538 L 46.938936,34.965538 L 47.093712,30.965538 L 44.5,30.965538 L 44.5,28.965538 L 38.5,28.965538 C 38.649078,27.366592 37.790038,26.91978 36.5,26.965538 L 14.5,26.965538 C 13.707653,27.318003 12.537758,26.726599 12.5,28.965538 L 6.5,28.965538 L 6.5,30.965538 L 4.5,30.965538 L 4.5,34.965538 z "
       style="opacity:1;fill:url(#radialGradient4610);fill-opacity:1;fill-rule:evenodd;stroke:#000000;stroke-width:1;stroke-linecap:round;stroke-linejoin:round;stroke-miterlimit:4;stroke-dasharray:none;stroke-opacity:1" />
    <path
       sodipodi:type="arc"
       style="opacity:1;fill:url(#radialGradient5499);fill-opacity:1;fill-rule:evenodd;stroke:#000000;stroke-width:1;stroke-linecap:round;stroke-linejoin:round;stroke-miterlimit:4;stroke-dasharray:none;stroke-dashoffset:0;stroke-opacity:1"
       id="path4612"
       sodipodi:cx="26.002419"
       sodipodi:cy="33.354294"
       sodipodi:rx="11.917775"
       sodipodi:ry="2.2442563"
       d="M 37.920194,33.354294 A 11.917775,2.2442563 0 1 1 37.919794,33.335914"
       sodipodi:start="0"
       sodipodi:end="6.2749955"
       sodipodi:open="true"
       transform="translate(67.41536,-18.61004)" />
  </g>
</svg>
